script

; *********************************************************************************************
;	SCRIPTING EXAMPLE
; *********************************************************************************************

; *********************************************************************************************
;	INITIALISATION
; *********************************************************************************************

	prepare_for_battle						; This must be *before* defining labels
	while ! I_BattleStarted					; Wait for deployment
	end_while
	ai_active_set off
	camera_restrictions_set off

; *********************************************************************************************
;	DEFINE UNIT LABELS
; *********************************************************************************************

	;	label_unit ALLIANCE ARMY UNIT





; *********************************************************************************************
;	DEFINE CAMERA BOOKMARKS
; *********************************************************************************************

	set_camera_bookmark 1,	-240.619, 193.776, 35.164		-247.96, 191.449, 29.245		; Roman general

	set_camera_bookmark 2,	-241.402, 194.261, -55.0092		-248.397, 191.792, -61.2544		; Roman Principes

	set_camera_bookmark 3,	90.0064, 192.202, -11.4233		97.5725, 188.684, -16.5652		; Carthaginian general

	set_camera_bookmark 4,	89.8523, 192.276, -59.1372		95.7152, 189.807, -66.4552		; Libyan spearmen

	set_camera_bookmark 5,	-74.2949, 212.707, 50.9985		-74.352, 207.36, 41.9156		; Grandstand view of the action


; *********************************************************************************************
;	JUMP BETWEEN CAMERA BOOKMARKS TO INTRODUCE THE TROOPS
; *********************************************************************************************

	battle_wait 3
	camera_zoom_to_bookmark 1

	battle_wait 10
	camera_zoom_to_bookmark 2

	battle_wait 10
	camera_zoom_to_bookmark 3

	battle_wait 10
	camera_zoom_to_bookmark 4


; *********************************************************************************************
;	MOVE CARTHAGINIAN TROOPS
; *********************************************************************************************





	battle_wait 5
	camera_zoom_to_bookmark 5



; *********************************************************************************************
;	MOVE ROMAN TROOPS
; *********************************************************************************************





; *********************************************************************************************
;	FIGHT!
; *********************************************************************************************





; *********************************************************************************************

	while I_InBattle
	end_while


end_script